[
    {
        "page": 1,
        "pages": 133,
        "per_page": 2,
        "total": 266,
        "sourceid": "2",
        "sourcename": "World Development Indicators",
        "lastupdated": "2022-09-16"
    },
    [
        {
            "indicator": {
                "id": "SP.POP.TOTL",
                "value": "Population, total"
            },
            "country": {
                "id": "ZH",
                "value": "Africa Eastern and Southern"
            },
            "countryiso3code": "AFE",
            "date": "2021",
            "value": 694665117,
            "unit": "",
            "obs_status": "",
            "decimal": 0
        },
        {
            "indicator": {
                "id": "SP.POP.TOTL",
                "value": "Population, total"
            },
            "country": {
                "id": "ZI",
                "value": "Africa Western and Central"
            },
            "countryiso3code": "AFW",
            "date": "2021",
            "value": 470898870,
            "unit": "",
            "obs_status": "",
            "decimal": 0
        }
    ]
]